<svg width="0" height="0" class="hidden">
    <symbol fill="none" xmlns="http://www.w3.org/2000/svg" viewBox="0 0 35 24" id="arrow-right">
        <path d="M6 12h24M23 5l7 7-7 7" stroke="currentColor" stroke-width="2" stroke-linecap="round" stroke-linejoin="round"/>
    </symbol>

    <symbol fill="none" xmlns="http://www.w3.org/2000/svg" viewBox="0 0 35 24" id="arrow-left">
        <path d="M29 12H5M12 5l-7 7 7 7" stroke="currentColor" stroke-width="2" stroke-linecap="round" stroke-linejoin="round"/>
    </symbol>

    <symbol fill="none" xmlns="http://www.w3.org/2000/svg" viewBox="0 0 16 16" id="arrow-right-bread">
        <path d="M10 8.001a.667.667 0 0 0-.154-.426l-3.333-4a.667.667 0 1 0-1.027.853l2.987 3.573-2.88 3.574a.667.667 0 0 0 .1.94.665.665 0 0 0 .973-.094l3.22-4a.667.667 0 0 0 .114-.42Z" fill="currentColor"/>
    </symbol>

    <symbol fill="none" xmlns="http://www.w3.org/2000/svg" viewBox="0 0 24 24" id="arrow-left-bread">
        <path d="M7.99972 12.0013C7.99927 11.7676 8.08064 11.5412 8.22972 11.3613L13.2297 5.36125C13.3995 5.15704 13.6434 5.02861 13.9078 5.00423C14.1722 4.97985 14.4355 5.06151 14.6397 5.23125C14.8439 5.40099 14.9724 5.6449 14.9967 5.90933C15.0211 6.17375 14.9395 6.43704 14.7697 6.64125L10.2897 12.0013L14.6097 17.3613C14.6928 17.4635 14.7548 17.5812 14.7923 17.7076C14.8297 17.8339 14.8418 17.9664 14.8278 18.0974C14.8139 18.2285 14.7742 18.3554 14.711 18.4711C14.6479 18.5867 14.5625 18.6887 14.4597 18.7713C14.3569 18.8628 14.2363 18.9322 14.1054 18.975C13.9745 19.0178 13.8362 19.0331 13.6992 19.0199C13.5621 19.0068 13.4292 18.9655 13.3089 18.8986C13.1885 18.8317 13.0833 18.7407 12.9997 18.6313L8.16972 12.6313C8.04421 12.4462 7.98435 12.2244 7.99972 12.0013Z" fill="currentColor"/>
    </symbol>

    <symbol fill="none" xmlns="http://www.w3.org/2000/svg" viewBox="0 0 29 33" id="play">
        <path d="M28 14.768c1.333.77 1.333 2.694 0 3.464L3.25 32.522c-1.333.77-3-.193-3-1.733V2.211c0-1.54 1.667-2.502 3-1.732L28 14.768Z" fill="currentColor"/>
    </symbol>

    <symbol fill="none" xmlns="http://www.w3.org/2000/svg" viewBox="0 0 24 24" id="close">
        <path d="M18 6 6 18M6 6l12 12" stroke="currentColor" stroke-width="2" stroke-linecap="round" stroke-linejoin="round"/>
    </symbol>

    <symbol fill="none" xmlns="http://www.w3.org/2000/svg" viewBox="0 0 24 24" id="user">
        <path fill-rule="evenodd" clip-rule="evenodd" d="M17.294 7.291A5.274 5.274 0 0 1 12 12.583a5.275 5.275 0 0 1-5.294-5.292A5.274 5.274 0 0 1 12 2a5.273 5.273 0 0 1 5.294 5.291ZM12 22c-4.338 0-8-.705-8-3.425 0-2.721 3.685-3.401 8-3.401 4.339 0 8 .705 8 3.425 0 2.72-3.685 3.4-8 3.4Z" fill="currentColor"/>
    </symbol>

    <symbol fill="none" xmlns="http://www.w3.org/2000/svg" viewBox="0 0 24 24" id="menu">
        <path d="M4 18h16M4 6h16H4Zm0 6h16H4Z" stroke="currentColor" stroke-width="2" stroke-linecap="round" stroke-linejoin="round"/>
    </symbol>

    <symbol fill="none" xmlns="http://www.w3.org/2000/svg" viewBox="0 0 16 16" id="eye">
        <path d="M1 8s2.545-5 7-5c4.454 0 7 5 7 5s-2.546 5-7 5c-4.455 0-7-5-7-5Z M8 10a2 2 0 1 0 0-4 2 2 0 0 0 0 4Z" stroke="currentColor" stroke-width="2" stroke-linecap="round" stroke-linejoin="round"/>
    </symbol>

    <symbol fill="none" xmlns="http://www.w3.org/2000/svg" viewBox="0 0 24 24" id="arrow-up">
        <path d="M11.999 7.999a1 1 0 0 1 .64.23l6 5a1.001 1.001 0 1 1-1.28 1.54l-5.36-4.48-5.36 4.32a1 1 0 0 1-1.41-.15 1 1 0 0 1 .14-1.46l6-4.83a1 1 0 0 1 .63-.17Z" fill="currentColor"/>
    </symbol>

    <symbol fill="none" xmlns="http://www.w3.org/2000/svg" viewBox="0 0 24 24" id="social-vk">
        <path d="M11.998.48C5.636.48.479 5.638.479 12c0 6.363 5.158 11.52 11.52 11.52 6.363 0 11.52-5.157 11.52-11.52 0-6.362-5.157-11.52-11.52-11.52Zm4.43 12.998s1.02 1.005 1.27 1.472c.008.01.011.02.014.024.102.172.126.305.075.405-.084.165-.372.247-.47.254h-1.8c-.125 0-.386-.032-.703-.25-.244-.171-.484-.45-.718-.723-.35-.406-.652-.756-.956-.756a.365.365 0 0 0-.114.018c-.23.074-.526.403-.526 1.279 0 .274-.216.43-.368.43h-.825c-.28 0-1.743-.098-3.04-1.465-1.586-1.674-3.014-5.031-3.026-5.062-.09-.218.096-.334.3-.334h1.817c.243 0 .322.148.377.278.065.153.302.759.692 1.44.633 1.112 1.02 1.563 1.331 1.563a.36.36 0 0 0 .167-.043c.405-.226.33-1.672.312-1.972 0-.056-.001-.647-.209-.93-.149-.205-.402-.283-.555-.312a.66.66 0 0 1 .238-.203c.279-.139.78-.16 1.278-.16h.277c.54.008.68.043.875.092.396.095.405.35.37 1.225-.01.248-.022.53-.022.86 0 .072-.003.15-.003.23-.012.446-.027.951.288 1.159a.26.26 0 0 0 .137.04c.109 0 .438 0 1.328-1.528.274-.492.513-1.003.714-1.529.018-.031.07-.127.133-.164a.32.32 0 0 1 .149-.035h2.137c.233 0 .393.035.422.125.053.142-.01.578-.985 1.9l-.435.574c-.885 1.16-.885 1.218.055 2.098Z" fill="currentColor"/>
    </symbol>

    <symbol fill="none" xmlns="http://www.w3.org/2000/svg" viewBox="0 0 24 24" id="social-fb">
        <path d="M12 .48C5.639.48.48 5.638.48 12c0 6.363 5.158 11.52 11.52 11.52 6.363 0 11.52-5.157 11.52-11.52C23.52 5.639 18.363.48 12 .48Zm2.73 7.961h-1.732c-.205 0-.433.27-.433.63v1.25h2.165l-.327 1.783h-1.838v5.353H10.52v-5.353H8.667V10.32h1.854V9.272c0-1.505 1.044-2.728 2.477-2.728h1.731v1.897Z" fill="currentColor"/>
    </symbol>

    <symbol fill="none" xmlns="http://www.w3.org/2000/svg" viewBox="0 0 24 24" id="social-insta">
        <path fill-rule="evenodd" clip-rule="evenodd" d="M24 12c0 6.627-5.373 12-12 12S0 18.627 0 12 5.373 0 12 0s12 5.373 12 12Zm-6.039-2.467a4.36 4.36 0 0 0-.28-1.48 3.078 3.078 0 0 0-1.757-1.757 4.41 4.41 0 0 0-1.46-.28c-.642-.03-.846-.037-2.476-.037s-1.84 0-2.477.036a4.41 4.41 0 0 0-1.459.28 3.076 3.076 0 0 0-1.757 1.758c-.176.467-.27.96-.28 1.46-.029.642-.037.846-.037 2.476s0 1.839.037 2.477c.01.5.104.992.28 1.46a3.079 3.079 0 0 0 1.758 1.757c.466.183.96.284 1.459.3.643.03.846.038 2.477.038 1.63 0 1.839 0 2.477-.037.498-.01.992-.105 1.459-.28a3.082 3.082 0 0 0 1.758-1.758c.175-.467.27-.96.28-1.46.028-.642.037-.846.037-2.477v-.023c-.001-1.61-.002-1.817-.039-2.453Zm-5.977 5.54a3.086 3.086 0 1 1-.001-6.172 3.086 3.086 0 0 1 .001 6.171Zm3.21-5.568a.719.719 0 1 1-.002-1.438.719.719 0 0 1 .001 1.438Zm-1.205 2.48a2.005 2.005 0 1 1-4.01 0 2.005 2.005 0 0 1 4.01 0Z" fill="currentColor"/>
    </symbol>

    <symbol fill="none" xmlns="http://www.w3.org/2000/svg" viewBox="0 0 24 24" id="social-tg">
        <path fill-rule="evenodd" clip-rule="evenodd" d="M24 12c0 6.627-5.373 12-12 12S0 18.627 0 12 5.373 0 12 0s12 5.373 12 12ZM12.43 8.859c-1.167.485-3.5 1.49-6.998 3.014-.568.226-.866.447-.893.663-.046.366.412.51 1.034.705.085.027.173.054.263.084.613.199 1.437.432 1.865.441.389.008.823-.152 1.302-.48 3.268-2.207 4.955-3.322 5.061-3.346.075-.017.179-.039.249.024.07.062.063.18.056.212-.046.193-1.84 1.862-2.77 2.726-.29.269-.495.46-.537.504-.094.097-.19.19-.282.279-.57.548-.996.96.024 1.632.49.323.882.59 1.273.856.427.291.853.581 1.405.943.14.092.274.187.405.28.497.355.944.673 1.496.623.32-.03.652-.331.82-1.23.397-2.126 1.179-6.73 1.36-8.628a2.112 2.112 0 0 0-.02-.472.506.506 0 0 0-.172-.325c-.143-.117-.365-.142-.465-.14-.451.008-1.143.249-4.476 1.635Z" fill="currentColor"/>
    </symbol>

    <symbol fill="none" xmlns="http://www.w3.org/2000/svg" viewBox="0 0 26 30" id="social-zen">
        <path d="M15.916 12.334c1.96 1.959 4.887 2.33 10.07 2.4-.14-6.883-5.622-12.44-12.472-12.708.062 5.331.414 8.319 2.402 10.308zM10.334 12.334c1.99-1.99 2.34-4.981 2.403-10.32C5.768 2.153.153 7.767.013 14.736c5.34-.062 8.33-.413 10.32-2.403zM15.916 17.916c-1.957 1.958-2.329 4.883-2.4 10.058 6.766-.267 12.191-5.692 12.458-12.457-5.175.07-8.1.442-10.058 2.4zM10.334 17.916c-1.99-1.988-4.977-2.34-10.308-2.402.268 6.85 5.825 12.333 12.707 12.473-.07-5.184-.44-8.111-2.4-10.07z"></path>
    </symbol>

    <symbol fill="none" xmlns="http://www.w3.org/2000/svg" viewBox="0 0 24 24" id="social-whatsapp">
        <path fill-rule="evenodd" clip-rule="evenodd" d="M12 24c6.627 0 12-5.373 12-12S18.627 0 12 0 0 5.373 0 12s5.373 12 12 12Zm2.7-18.475c.847.35 1.615.864 2.26 1.512A6.876 6.876 0 0 1 19 11.944c0 3.822-3.13 6.937-6.972 6.937a7.001 7.001 0 0 1-3.335-.847L5 19l.985-3.598a6.93 6.93 0 0 1-.929-3.465C5.056 8.115 8.186 5 12.028 5a6.936 6.936 0 0 1 2.672.525ZM9.073 16.9a5.834 5.834 0 0 0 2.955.805c3.194 0 5.797-2.583 5.783-5.761a5.703 5.703 0 0 0-1.695-4.081 5.75 5.75 0 0 0-4.095-1.694c-3.194 0-5.797 2.59-5.797 5.768 0 1.085.308 2.147.887 3.066l.14.217-.584 2.128 2.195-.574.211.126Zm5.903-3.619.232.112.096.045c.12.054.195.09.235.151.049.077.049.42-.099.826-.14.406-.837.777-1.175.826a2.422 2.422 0 0 1-1.097-.07 8.548 8.548 0 0 1-.992-.364c-1.668-.716-2.79-2.347-2.959-2.593a4.157 4.157 0 0 0-.017-.025l-.001-.002c-.09-.119-.71-.94-.71-1.79 0-.788.384-1.206.565-1.404l.04-.045a.633.633 0 0 1 .465-.217h.337l.039.001c.101.001.231.003.355.3.141.35.493 1.204.535 1.288.042.084.07.182.014.301l-.014.028c-.048.097-.084.17-.162.259l-.084.1a3.103 3.103 0 0 1-.176.201c-.091.091-.176.182-.077.357.105.175.45.742.97 1.204.566.503 1.06.714 1.3.817l.1.044c.176.091.282.077.38-.042.099-.112.43-.504.55-.679.119-.168.231-.14.393-.084.117.048.635.299.957.455Z" fill="currentColor"/>
    </symbol>

    <symbol fill="none" xmlns="http://www.w3.org/2000/svg" viewBox="0 0 24 24" id="search">
        <path d="M11 19a8 8 0 1 0 0-16 8 8 0 0 0 0 16ZM20.998 21l-4.35-4.35" stroke="currentColor" stroke-width="2" stroke-linecap="round" stroke-linejoin="round"/>
    </symbol>

    <symbol fill="none" xmlns="http://www.w3.org/2000/svg" viewBox="0 0 24 24" id="menu">
        <path d="M4 6h16H4Zm0 6h16H4Zm0 6h16H4Z" fill="currentColor"/><path d="M4 18h16M4 6h16H4Zm0 6h16H4Z" stroke="currentColor" stroke-width="2" stroke-linecap="round" stroke-linejoin="round"/>
    </symbol>

    <symbol fill="none" xmlns="http://www.w3.org/2000/svg" viewBox="0 0 24 24" id="clock">
        <path d="M12 22c5.523 0 10-4.477 10-10S17.523 2 12 2 2 6.477 2 12s4.477 10 10 10Z" stroke="currentColor" stroke-width="2" stroke-linecap="round" stroke-linejoin="round"/><path d="M12 6v6l4 2" stroke="currentColor" stroke-width="2" stroke-linecap="round" stroke-linejoin="round"/>
    </symbol>

    <symbol fill="none" xmlns="http://www.w3.org/2000/svg" viewBox="0 0 16 16" id="check">
        <path d="M13.334 4 6 11.333 2.667 8" stroke="currentColor" stroke-width="2" stroke-linecap="round" stroke-linejoin="round"/>
    </symbol>

    <symbol fill="none" xmlns="http://www.w3.org/2000/svg" viewBox="0 0 24 24" id="filter">
        <path d="M10.332 16.593h-6.3M13.14 6.9h6.301" stroke="currentColor" stroke-width="2" stroke-linecap="round" stroke-linejoin="round"/><path clip-rule="evenodd" d="M8.726 6.846A2.355 2.355 0 0 0 6.363 4.5 2.355 2.355 0 0 0 4 6.846a2.355 2.355 0 0 0 2.363 2.347 2.355 2.355 0 0 0 2.363-2.347ZM20 16.553a2.354 2.354 0 0 0-2.363-2.346 2.355 2.355 0 0 0-2.364 2.346 2.355 2.355 0 0 0 2.364 2.346A2.354 2.354 0 0 0 20 16.553Z" stroke="currentColor" stroke-width="2" stroke-linecap="round" stroke-linejoin="round"/>
    </symbol>

    <symbol fill="none" xmlns="http://www.w3.org/2000/svg" viewBox="0 0 40 40" id="stop">
        <path d="M35.374 32.363c6.823-8.487 5.475-20.898-3.012-27.722C23.875-2.182 11.464-.834 4.64 7.653-2.183 16.14-.835 28.55 7.652 35.375c8.487 6.823 20.898 5.475 27.722-3.012Z" fill="#FAFAFA"/><path d="M19.98 40a19.978 19.978 0 1 1 19.931-21.855 20.027 20.027 0 0 1-19.93 21.854ZM20.012.554a19.405 19.405 0 1 0 .037 38.81 19.405 19.405 0 0 0-.037-38.81Z" fill="#FE6464"/><path d="M29.164 17.727a1.384 1.384 0 0 0-2.228-.113 4.806 4.806 0 0 0-.608 1.36c-.386 1.194-.725 2.402-1.103 3.6-.039.126-.191.222-.29.33-.083-.121-.218-.238-.235-.373a40.738 40.738 0 0 1-.235-2.054c-.126-1.351-.234-2.702-.356-4.048-.209-2.267-.434-4.539-.647-6.801a1.398 1.398 0 0 0-.3-.704 1.33 1.33 0 0 0-1.533-.274 1.255 1.255 0 0 0-.678 1.303c.22 2.406.444 4.811.67 7.214.019.112.019.227 0 .339-.031.091-.135.208-.218.217a.35.35 0 0 1-.247-.174.907.907 0 0 1-.052-.33l-.782-8.382a4.355 4.355 0 0 0-.061-.525.977.977 0 0 0-.869-.843 1.303 1.303 0 0 0-1.62 1.503c.252 2.753.509 5.504.77 8.252.016.161.016.324 0 .486a.309.309 0 0 1-.196.217.321.321 0 0 1-.252-.156 1.5 1.5 0 0 1-.07-.434c-.208-2.207-.404-4.409-.62-6.615a1.268 1.268 0 0 0-2.524.243c.214 2.345.431 4.688.651 7.027.03.143.039.29.026.435-.05.126-.12.244-.204.352-.1-.105-.278-.2-.29-.313-.096-.847-.157-1.703-.235-2.554-.078-.851-.157-1.807-.256-2.706a1.19 1.19 0 0 0-1.412-1.038 1.1 1.1 0 0 0-1.016 1.251c.115 1.766.23 3.535.343 5.307.1 1.078.187 2.172.239 3.236a16.347 16.347 0 0 0 1.424 6.241 5.803 5.803 0 0 0 4.343 3.427 8.395 8.395 0 0 0 6.133-1.234 5.647 5.647 0 0 0 2.606-3.357 360.426 360.426 0 0 0 2.028-8.221c.098-.364.065-.75-.096-1.09Z" fill="#FE6464"/>
    </symbol>

    <symbol fill="none" xmlns="http://www.w3.org/2000/svg" viewBox="0 0 12 13" id="bullet">
        <path d="M11.425 4.114c-.035-.304-.104-.575-.348-.778l-.105-.102c-.488-.812-1.185-1.489-1.986-2.03C7.87.493 6.616.12 5.814 1.068c-.313-.034-.627-.034-.87-.034-.175 0-.35 0-.489.034-.94-.372-1.951-.372-2.37.813-.174.44-.244.913-.278 1.455-.175.135-.314.27-.453.474C.447 5.096.587 7.33.935 8.75c.628 2.403 3.276 4.332 5.542 3.588.174-.034.348-.101.522-.203 1.22.237 2.544-.17 3.625-1.421 1.568-1.963 1.742-4.502.801-6.6Zm-5.332 2.2a8.033 8.033 0 0 1 .035-1.59l.21.1c.034.035.069.035.104.069.104.507.104 1.218-.349 1.421Zm-4.008 1.15c-.034-.236-.034-.473-.034-.744.243.846.592 1.658.94 2.37.21.54.454 1.082.802 1.488a2.624 2.624 0 0 1-.488-.372c-.801-.643-1.15-1.726-1.22-2.741Zm7.737 1.93c-.348.541-.767.913-1.22 1.117.28-.44.593-.982.837-1.557.07-.102.104-.237.174-.373.174-.169.279-.406.21-.643v-.033c.383-.271.627-.745.731-1.286.035-.034.035-.068.07-.102 0 1.015-.244 2.03-.802 2.877Z" fill="currentColor"/>
    </symbol>

    <symbol fill="none" xmlns="http://www.w3.org/2000/svg" viewBox="0 0 16 16" id="home">
        <path d="M14.79 7.89 8.354 1.46a.499.499 0 0 0-.706 0L1.212 7.89a1 1 0 0 0 .706 1.708h.678v4.59a.5.5 0 0 0 .5.5h3.905v-3.5h1.75v3.5h4.155a.5.5 0 0 0 .5-.5v-4.59h.678a1 1 0 0 0 .706-1.708Z" fill="currentColor"/>
    </symbol>

    <symbol fill="none" xmlns="http://www.w3.org/2000/svg" viewBox="0 0 48 48" id="volume">
        <path d="M6 18v12h8l10 10V8L14 18H6zm27 6c0-3.53-2.04-6.58-5-8.05v16.11c2.96-1.48 5-4.53 5-8.06zM28 6.46v4.13c5.78 1.72 10 7.07 10 13.41s-4.22 11.69-10 13.41v4.13c8.01-1.82 14-8.97 14-17.54S36.01 8.28 28 6.46z" fill="currentColor"/><path d="M0 0h48v48H0z" fill="none"/>
    </symbol>
</svg>