{
    "http-basic": {
        "gateway.octobercms.com": {
            "username": "p.f.spiridonov@yandex.ru",
            "password": "0ZmZlZGxgZwL2AGx2YGZ5ZJHmMwpjZzHlMzL3ZTH5ZGMwLmRjLwuxZGV5MGVm"
        }
    }
}