{
  "name": "nicl",
  "version": "1.0.0",
  "description": "",
  "main": "block.js",
  "type" : "module",
  "pluginName" : "x",
  "scripts": {
	"build": "node esbuild",
    "test": "echo \"Error: no test specified\" && exit 1"
  },
  "keywords": [],
  "author": "",
  "license": "ISC",
  "devDependencies": {
    "esbuild": "^0.15.10"
  }
}
